%YAML 1.1
%TAG !u! tag:unity3d.com,2011:
--- !u!114 &11400000
MonoBehaviour:
  m_ObjectHideFlags: 0
  m_CorrespondingSourceObject: {fileID: 0}
  m_PrefabInstance: {fileID: 0}
  m_PrefabAsset: {fileID: 0}
  m_GameObject: {fileID: 0}
  m_Enabled: 1
  m_EditorHideFlags: 0
  m_Script: {fileID: 11500000, guid: fa6d40ca45dd4c14a6b396ff010cdd7d, type: 3}
  m_Name: GamePrefabs
  m_EditorClassIdentifier: 
  RootCanvasPrefab: {fileID: 4356168890796839573, guid: efeb605ad619d42f381fcfed58221056, type: 3}
  SettingsViewPrefab: {fileID: 7259608848415153135, guid: 8e930114528ba492c9a0f5fd76975fe9, type: 3}
  SoundSwitcherPrefab: {fileID: 5491100864248842891, guid: 223a7b15f0f144e9fbc3ceee13762308, type: 3}
  MainMenuViewPrefab: {fileID: 1077567726431941493, guid: 5c906a69f45a647a58117c8280f8343f, type: 3}
  TopPanelViewPrefab: {fileID: 2263593582733481353, guid: c0aa100a142ec406095f0d6ba2fc6f5b, type: 3}
  BetPanelViewPrefab: {fileID: 8190794987473292989, guid: 5901f4cc61a314d88af762a465ffe195, type: 3}
  WinPopUpPrefab: {fileID: 5969515148948393189, guid: 5c189ac7865d44ba4b2dc55866b7642d, type: 3}
  ClothPrefab: {fileID: 6157479278204492657, guid: c5bbb418eaf65428dba6b9442db24c24, type: 3}
  CardViewPrefab: {fileID: 7355212980277478039, guid: 3fb532e55135447c995c59364d5587be, type: 3}
  StatisticsScreenViewPrefab: {fileID: 8382714392352989700, guid: 61e3a53e00bbe4bdea61365623a68a8c, type: 3}
